Intro to Visualizations
…
---
# Rearrange

```r
tuition %>%
  pivot_longer(`2004-05`:`2015-16`,
               names_to = "year", 
               values_to = "avg_tuition") 
```

```
## # A tibble: 600 x 3
##    State   year    avg_tuition
##    <chr>   <chr>         <dbl>
##  1 Alabama 2004-05    5682.838
##  2 Alabama 2005-06    5840.550
##  3 Alabama 2006-07    5753.496
##  4 Alabama 2007-08    6008.169
##  5 Alabama 2008-09    6475.092
##  6 Alabama 2009-10    7188.954
##  7 Alabama 2010-11    8071.134
##  8 Alabama 2011-12    8451.902
##  9 Alabama 2012-13    9098.069
## 10 Alabama 2013-14    9358.929
## # … with 590 more rows
```
…
--
Treat time (year) as a continuous variable

---
# Grouped points
Show change in tuition from 05-06 to 2015-16

```r
tuition %>% 
  select(State, `2005-06`, `2015-16`)
```

```
## # A tibble: 50 x 3
##    State       `2005-06` `2015-16`
##    <chr>           <dbl>     <dbl>
##  1 Alabama      5840.550  9751.101
##  2 Alaska       4632.623  6571.340
##  3 Arizona      5415.516 10646.28 
##  4 Arkansas     6082.379  7867.297
##  5 California   5527.881  9269.844
##  6 Colorado     5406.967  9748.188
##  7 Connecticut  8249.074 11397.34 
##  8 Delaware     8610.597 11676.22 
##  9 Florida      3924.234  6360.159
## 10 Georgia      4492.167  8446.961
## # … with 40 more rows
```

---

```r
lt <- tuition %>% 
  select(State, `2005-06`, `2015-16`) %>% 
  pivot_longer(`2005-06`:`2015-16`,
               names_to = "Year", 
               values_to = "Tuition")
lt
```

```
## # A tibble: 100 x 3
##    State      Year      Tuition
##    <chr>      <chr>       <dbl>
##  1 Alabama    2005-06  5840.550
##  2 Alabama    2015-16  9751.101
##  3 Alaska     2005-06  4632.623
##  4 Alaska     2015-16  6571.340
##  5 Arizona    2005-06  5415.516
##  6 Arizona    2015-16 10646.28 
##  7 Arkansas   2005-06  6082.379
##  8 Arkansas   2015-16  7867.297
##  9 California 2005-06  5527.881
## 10 California 2015-16  9269.844
## # … with 90 more rows
```
…
```r
tuition_l <- tuition %>%
    pivot_longer(-State,
                 names_to = "year", 
                 values_to = "avg_tuition") 

tuition_l
```

```
## # A tibble: 600 x 3
##    State   year    avg_tuition
##    <chr>   <chr>         <dbl>
##  1 Alabama 2004-05    5682.838
##  2 Alabama 2005-06    5840.550
##  3 Alabama 2006-07    5753.496
##  4 Alabama 2007-08    6008.169
##  5 Alabama 2008-09    6475.092
##  6 Alabama 2009-10    7188.954
##  7 Alabama 2010-11    8071.134
##  8 Alabama 2011-12    8451.902
##  9 Alabama 2012-13    9098.069
## 10 Alabama 2013-14    9358.929
## # … with 590 more rows
```
…
