Refining your plots
…
---

```r
by_country
```

```
## # A tibble: 17 x 8
## # Groups:   consent_law [2]
##   consent_law country     donors_mean donors_sd gdp_mean health_mean roads_mean
##   <chr>       <chr>             <dbl>     <dbl>    <dbl>       <dbl>      <dbl>
## 1 Informed    Australia      10.635   1.142808  22178.54    1957.5    104.8757 
## 2 Informed    Canada         13.96667 0.7511607 23711.08    2271.929  109.2601 
## 3 Informed    Denmark        13.09167 1.468121  23722.31    2054.071  101.6363 
## 4 Informed    Germany        13.04167 0.6111960 22163.23    2348.75   112.7887 
## 5 Informed    Ireland        19.79167 2.478437  20824.38    1479.929  117.7742 
## 6 Informed    Netherlands    13.65833 1.551807  23013.15    1992.786   76.09357
## # … with 11 more rows, and 1 more variable: cerebvas_mean <dbl>
```
…
