Visualizing uncertainty
…
---
# Visualize the sampling distributions

```r
sample_means <- tibble(iter = rep(1:1000, 2),
                       sample = rep(c(10, 100), each = 1000),
                       mean = c(map_dbl(samples, mean),
                                map_dbl(samples2, mean))
                       )
sample_means
```

```
## # A tibble: 2,000 x 3
##     iter sample      mean
##    <int>  <dbl>     <dbl>
##  1     1     10  95.75441
##  2     2     10 103.2204 
##  3     3     10  99.91284
##  4     4     10 102.2169 
##  5     5     10 101.2308 
##  6     6     10  96.37082
##  7     7     10 103.1310 
##  8     8     10 104.3709 
##  9     9     10  96.04152
## 10    10     10  96.77087
## #  with 1,990 more rows
```
…
