Visualizing uncertainty
…
---
# Visualize the sampling distributions

```r
sample_means <- tibble(
  iter = rep(1:1000, 2),
  sample = rep(c(10, 100), each = 1000),
  mean = c(map_dbl(samples, mean),
           map_dbl(samples2, mean))
)
sample_means
```

```
## # A tibble: 2,000 x 3
##    iter sample      mean
##   <int>  <dbl>     <dbl>
## 1     1     10  95.75441
## 2     2     10 103.2204 
## 3     3     10  99.91284
## 4     4     10 102.2169 
## 5     5     10 101.2308 
## 6     6     10  96.37082
## #  with 1,994 more rows
```
…
---
# Visualize with standard errors

```r
tidied_m <- broom::tidy(m, conf.int = TRUE)

tidied_m
```

```
## # A tibble: 8 x 7
##   term          estimate std.error  statistic      p.value  conf.low
##   <chr>            <dbl>     <dbl>      <dbl>        <dbl>     <dbl>
## 1 (Intercept)  28.77682  1.472892   19.53763  1.905873e-50 25.87446 
## 2 displ        -2.171562 0.1746638 -12.43281  2.197130e-27 -2.515740
## 3 classcompact -3.599125 1.252190   -2.874265 4.436052e- 3 -6.066585
## 4 classmidsize -3.675526 1.206253   -3.047061 2.585762e- 3 -6.052466
## 5 classminivan -5.595070 1.305993   -4.284151 2.714490e- 5 -8.168550
## 6 classpickup  -6.182466 1.121448   -5.512931 9.600087e- 8 -8.392297
## #  with 2 more rows, and 1 more variable: conf.high <dbl>
```
…
