Geographic Data
…
```r
roads_laneco <- read_sf(here::here("data", "roads_lane.shp"))
roads_laneco
```

```
## Simple feature collection with 20458 features and 4 fields
## geometry type:  LINESTRING
## dimension:      XY
## bbox:           xmin: -124.1536 ymin: 43.4376 xmax: -121.8078 ymax: 44.29001
## epsg (SRID):    NA
## proj4string:    +proj=longlat +ellps=GRS80 +no_defs
## # A tibble: 20,458 x 5
##    LINEARID   FULLNAME    RTTYP MTFCC                                   geometry
##    <chr>      <chr>       <chr> <chr>                           <LINESTRING [°]>
##  1 110215261… W Lone Oak… M     S1640 (-123.1256 44.10108, -123.1262 44.10109, …
##  2 110458663… Cottage Ht… M     S1400 (-123.0522 43.7893, -123.0522 43.7894, -1…
##  3 110221769… Sheldon Vi… M     S1640 (-123.0742 44.07891, -123.073 44.07891, -…
##  4 110215261… Village Pl… M     S1640 (-123.1051 44.08716, -123.1058 44.08736, …
##  5 110458661… River Poin… M     S1400 (-123.0864 44.10306, -123.0852 44.10305, …
##  6 110221769… Sheldon Vi… M     S1640 (-123.0723 44.07875, -123.0723 44.07904, …
##  7 110458664… Village Pl… M     S1400 (-123.1053 44.08658, -123.1052 44.08687, …
##  8 110222314… Carpenter … M     S1400   (-123.3368 43.78013, -123.3367 43.78008)
##  9 110609282… State Hwy … S     S1200 (-123.0502 44.04391, -123.0502 44.04396, …
## 10 110449310… State Hwy … S     S1200 (-122.996 44.04587, -122.9959 44.04586, -…
## # … with 20,448 more rows
```
…
